Change Physical Footprint: Designator=C1_1 Old Footprint=CAPC2012X145N New Footprint=CAPC2012X145N
Change Physical Footprint: Designator=C1_2 Old Footprint=CAPC2012X145N New Footprint=CAPC2012X145N
Change Physical Footprint: Designator=C1_3 Old Footprint=CAPC2012X145N New Footprint=CAPC2012X145N
Change Physical Footprint: Designator=C1_4 Old Footprint=CAPC2012X145N New Footprint=CAPC2012X145N
Change Physical Footprint: Designator=C1_5 Old Footprint=CAPC2012X145N New Footprint=CAPC2012X145N
Change Physical Footprint: Designator=C1_6 Old Footprint=CAPC2012X145N New Footprint=CAPC2012X145N
Change Physical Footprint: Designator=C1_7 Old Footprint=CAPC2012X145N New Footprint=CAPC2012X145N
Change Physical Footprint: Designator=IC1_1 Old Footprint=SOIC127P600X175-8N New Footprint=SOIC127P600X175-8N
Change Physical Footprint: Designator=IC1_2 Old Footprint=SOP65P490X110-8N New Footprint=SOP65P490X110-8N
Change Physical Footprint: Designator=J1_1 Old Footprint=TE_5-1634503-1 New Footprint=TE_5-1634503-1
Change Physical Footprint: Designator=J1_2 Old Footprint=2043180006 New Footprint=2043180006
Change Physical Footprint: Designator=J1_3 Old Footprint=Harwin_M20-7820246_0 New Footprint=Harwin_M20-7820246_0
Change Physical Footprint: Designator=J1_4 Old Footprint=SHDR2W100P0X508_1X2_1216X860X1200P New Footprint=SHDR2W100P0X508_1X2_1216X860X1200P
Change Physical Footprint: Designator=J1_5 Old Footprint=SHDR2W100P0X508_1X2_1216X860X1200P New Footprint=SHDR2W100P0X508_1X2_1216X860X1200P
Change Physical Footprint: Designator=J1_6 Old Footprint=2043180006 New Footprint=2043180006
Change Physical Footprint: Designator=Q1_1 Old Footprint=TRANS_IRL7472L1TRPBF New Footprint=TRANS_IRL7472L1TRPBF
Change Physical Footprint: Designator=R1_1 Old Footprint=CSS2H-5930R-L500F New Footprint=CSS2H-5930R-L500F
Change Physical Footprint: Designator=R1_2 Old Footprint=RESC1608X55N New Footprint=RESC1608X55N
Change Physical Footprint: Designator=R1_3 Old Footprint=RESC1608X55N New Footprint=RESC1608X55N
Change Physical Footprint: Designator=R1_4 Old Footprint=AXIAL-0.3 New Footprint=AXIAL-0.3
Change Physical Footprint: Designator=R1_5 Old Footprint=AXIAL-0.3 New Footprint=AXIAL-0.3
Change Physical Footprint: Designator=R1_6 Old Footprint=RESC2012X60N New Footprint=RESC2012X60N
Change Physical Footprint: Designator=R1_7 Old Footprint=*RESC0603X26N New Footprint=*RESC0603X26N
Change Physical Footprint: Designator=U1_1 Old Footprint=SOT95P237X112-3N New Footprint=SOT95P237X112-3N
