Removed Pin From Net: NetName=+5 Pin=IC1_2-5
Added Pin To Net: NetName=+5 Pin=J1_1-2
Added Pin To Net: NetName=+5 Pin=J1_1-3
Added Pin To Net: NetName=+5 Pin=J1_1-4
Added Pin To Net: NetName=+5 Pin=J1_1-5
